Issue Key,Summary,Description,Acceptance Criteria,Story Points
,search for a recipe,User should be able to search for a recipe using multi-word search and find recipes with one or more of the words entered. Entered words should be highlighted in the search results. Recipe search results should be sortable links. ,,5 hours
,search for an ingredient,User should be able to search for an ingredient using multi-word search and find ingredients with one or more of the words entered. Entered words should be highlighted in the search results. Search results should be sortable links. ,,1 hour
,search for a wine,User should be able to search for a wine using multi-word search and find wines with one or more of the words entered. Entered words should be highlighted in the search results. Wine search results should be sortable links. ,,1 hour
,get to a paired ingredient's page from a wine page,"After finding a wine's instance page, user should be able to get to a paired ingredients instance page. The wine's paired ingredients should be listed on it's instance page with pagination.",,3 hours
,get to an ingredient's page from a recipe page,"After finding a recipe's instance page, user should be able to get to a ingredients instance page. The recipes ingredients should be listed on it's instance page with pagination.",,1 hour
,get to a paired wine's page from an ingredient page,"After finding an ingredient's instance page, user should be able to get to a paired wine's instance page. The ingredient's paired wines should be listed on it's instance page with pagination.",,1 hour
,get to a paired wine's page from a recipe page,"After finding a recipe's instance page, user should be able to get to a paired wine's instance page. The recipe's paired wines should be listed on it's instance page with pagination.",,1 hour
,get to a paired recipe's page from a wine page,"After finding a wine's instance page, user should be able to get to a paired recipe's instance page. The wine's paired recipes should be listed on it's instance page with pagination.",,1 hour
,get to a paired recipe's page from an ingredient page,"After finding an ingredient's instance page, user should be able to get to a recipe's instance page that contains that ingredient. The recipes containing that ingredient should be listed on it's instance page with pagination.",,1 hour
,sort recipes by any established attribute,"On the recipes page containing all the recipes, the user should be able to sort the recipes by any of the provided attributes.",,1 hour
,sort wines by any established attribute,"On the wines page containing all the wines, the user should be able to sort the wines by any of the provided attributes.",,1 hour
,sort ingredients by any established attribute,"On the ingredients page containing all the ingredients, the user should be able to sort the ingredients by any of the provided attributes.",,1 hour
,filter recipes by any established attribute,"On the recipes page containing all the recipes, the user should be able to filter the recipes by any of the provided attributes.",,1 hour
,filter wines by any established attribute,"On the wines page containing all the wines, the user should be able to filter the wines by any of the provided attributes.",,1 hour
,filter ingredients by any established attribute,"On the ingredients page containing all the ingredients, the user should be able to filter the ingredients by any of the provided attributes.",,1 hour
